{
    "salmon_version": "1.7.0",
    "samp_type": "bootstrap",
    "opt_type": "vb",
    "quant_errors": [],
    "num_libraries": 1,
    "library_types": [
        "SF"
    ],
    "frag_dist_length": 1001,
    "frag_length_mean": 250.0000097391447,
    "frag_length_sd": 25.001769513739427,
    "seq_bias_correct": true,
    "gc_bias_correct": true,
    "num_bias_bins": 4096,
    "mapping_type": "mapping",
    "keep_duplicates": false,
    "num_valid_targets": 28968,
    "num_decoy_targets": 1869,
    "num_eq_classes": 37371,
    "serialized_eq_classes": true,
    "eq_class_properties": [
        "range_factorized",
        "scalar_weights",
        "gzipped"
    ],
    "length_classes": [
        1077,
        1721,
        2531,
        3537,
        10463
    ],
    "index_seq_hash": "f9a213d4754104a22ee0a2b7814fcc690bcd5bab90452ea2d6e96a8aee74010c",
    "index_name_hash": "3b28b22ba1cebf3fad67c4d08e1919f27627bf620b083974338ca89e79bb6b95",
    "index_seq_hash512": "1bd880f3a9177d88e346bdc0ac5a7f691d4ceebd11c86de41c4924a328d9e8f054d96840c781552d5d326246e64e629e37dfb152153afa4313eee3182dffec4a",
    "index_name_hash512": "dab7cf233073ef5277f41e3afcf1e9d7f4643329eec42981dce7483e0d40678215dc99cde9406bdc7ad2dea36bf0ac91d6141190c7b19eae4e43aa49cf78964f",
    "index_decoy_seq_hash": "0349c379e6c47cc7527568ee3e0e0525f1219a6b7f3e338b555a411557b91409",
    "index_decoy_name_hash": "095c7b3ce520ec9ef27f53ce2f246d02aeec6560d22e7e39a0fa2317d346a1a2",
    "num_bootstraps": 100,
    "num_processed": 10481619,
    "num_mapped": 4673834,
    "num_decoy_fragments": 214991,
    "num_dovetail_fragments": 0,
    "num_fragments_filtered_vm": 298434,
    "num_alignments_below_threshold_for_mapped_fragments_vm": 1116661,
    "percent_mapped": 44.59076407948047,
    "call": "quant",
    "start_time": "Thu Feb 22 14:25:24 2024",
    "end_time": "Thu Feb 22 14:28:09 2024"
}