{
    "read_files": "[ /faststorage/project/PAN_illumina/tmp//pra/dm6/RNAseq/2024-02-22-tPAF_Laktionov_2018_RNAseq_unstranded_DGE_preprint//wt_Rep1_Laktionov_SRR5388567/TMP_mapfree/decollapsed.fa ]",
    "expected_format": "SF",
    "compatible_fragment_ratio": 1.0,
    "num_compatible_fragments": 4366672,
    "num_assigned_fragments": 4366672,
    "num_frags_with_concordant_consistent_mappings": 4366672,
    "num_frags_with_inconsistent_or_orphan_mappings": 0,
    "strand_mapping_bias": 1.0,
    "MSF": 0,
    "OSF": 0,
    "ISF": 0,
    "MSR": 0,
    "OSR": 0,
    "ISR": 0,
    "SF": 4366672,
    "SR": 0,
    "MU": 0,
    "OU": 0,
    "IU": 0,
    "U": 0
}